<?xml version="1.0" encoding="UTF-8" standalone="no"?>
<!-- Created with Inkscape (http://www.inkscape.org/) -->

<svg
   xmlns:osb="http://www.openswatchbook.org/uri/2009/osb"
   xmlns:dc="http://purl.org/dc/elements/1.1/"
   xmlns:cc="http://creativecommons.org/ns#"
   xmlns:rdf="http://www.w3.org/1999/02/22-rdf-syntax-ns#"
   xmlns:svg="http://www.w3.org/2000/svg"
   xmlns="http://www.w3.org/2000/svg"
   xmlns:sodipodi="http://sodipodi.sourceforge.net/DTD/sodipodi-0.dtd"
   xmlns:inkscape="http://www.inkscape.org/namespaces/inkscape"
   width="212"
   height="48"
   viewBox="0 0 212 48.000004"
   id="svg2"
   version="1.1"
   inkscape:version="0.91 r"
   sodipodi:docname="logo.svg">
  <defs
     id="defs4">
    <linearGradient
       id="linearGradient4247"
       osb:paint="solid">
      <stop
         style="stop-color:#000000;stop-opacity:1;"
         offset="0"
         id="stop4249" />
    </linearGradient>
    <linearGradient
       id="linearGradient4241"
       osb:paint="solid">
      <stop
         style="stop-color:#ffffff;stop-opacity:1;"
         offset="0"
         id="stop4243" />
    </linearGradient>
    <linearGradient
       id="linearGradient4235"
       osb:paint="solid">
      <stop
         style="stop-color:#ffffff;stop-opacity:1;"
         offset="0"
         id="stop4237" />
    </linearGradient>
    <linearGradient
       id="linearGradient4209"
       osb:paint="solid"
       gradientTransform="translate(1.9073486e-6,-1040.3621)">
      <stop
         style="stop-color:#223d73;stop-opacity:1;"
         offset="0"
         id="stop4211" />
    </linearGradient>
    <linearGradient
       id="linearGradient4203"
       osb:paint="solid"
       gradientTransform="matrix(18.666672,0,0,16.000004,-2.1219962,-32416.232)">
      <stop
         style="stop-color:#132240;stop-opacity:1;"
         offset="0"
         id="stop4205" />
    </linearGradient>
    <linearGradient
       id="linearGradient4197"
       osb:paint="solid"
       gradientTransform="matrix(256.00014,0,0,256.00014,748.40153,-1508.613)">
      <stop
         style="stop-color:#3966bf;stop-opacity:1;"
         offset="0"
         id="stop4199" />
    </linearGradient>
    <linearGradient
       id="linearGradient4191"
       osb:paint="solid"
       gradientTransform="translate(1.9073486e-6,-1040.3621)">
      <stop
         style="stop-color:#728cbf;stop-opacity:1;"
         offset="0"
         id="stop4193" />
    </linearGradient>
    <linearGradient
       id="linearGradient4175"
       osb:paint="solid">
      <stop
         style="stop-color:#52658a;stop-opacity:1;"
         offset="0"
         id="stop4177" />
    </linearGradient>
  </defs>
  <sodipodi:namedview
     id="base"
     pagecolor="#ffffff"
     bordercolor="#666666"
     borderopacity="1.0"
     inkscape:pageopacity="0.0"
     inkscape:pageshadow="2"
     inkscape:zoom="4"
     inkscape:cx="117.16301"
     inkscape:cy="41.615196"
     inkscape:document-units="px"
     inkscape:current-layer="g4308"
     showgrid="true"
     units="px"
     inkscape:snap-global="true"
     inkscape:snap-bbox="true"
     inkscape:object-nodes="true"
     inkscape:window-width="1920"
     inkscape:window-height="1003"
     inkscape:window-x="1050"
     inkscape:window-y="625"
     inkscape:window-maximized="1">
    <inkscape:grid
       type="xygrid"
       id="grid3336" />
  </sodipodi:namedview>
  <metadata
     id="metadata7">
    <rdf:RDF>
      <cc:Work
         rdf:about="">
        <dc:format>image/svg+xml</dc:format>
        <dc:type
           rdf:resource="http://purl.org/dc/dcmitype/StillImage" />
        <dc:title />
      </cc:Work>
    </rdf:RDF>
  </metadata>
  <g
     inkscape:label="Layer 1"
     inkscape:groupmode="layer"
     id="layer1"
     transform="translate(0,-1004.3622)">
    <g
       id="g4308"
       transform="translate(3.0267794,-2.9999998)">
      <path
         sodipodi:nodetypes="cccccccc"
         inkscape:connector-curvature="0"
         id="path3338"
         d="m 0.97321154,1035.3622 14.00000246,-24 14.000004,24 -9.333336,0 0,16 -9.333336,0 0,-16 z"
         style="fill:url(#linearGradient4191);fill-rule:evenodd;stroke:none;stroke-width:1.00000012;stroke-linecap:butt;stroke-linejoin:miter;stroke-miterlimit:4;stroke-dasharray:none;stroke-opacity:1" />
      <path
         inkscape:connector-curvature="0"
         id="path3340"
         d="m 36.973207,1011.3622 0,40 20.000001,0 8,-8 0,-24 -8,-8 -20.000001,0 z m 8,8 8.000001,0 4,4 0,16 -4,4 -8.000001,0 0,-24 z"
         style="fill:url(#linearGradient4197);fill-rule:evenodd;stroke:none;stroke-width:1.00000012;stroke-linecap:butt;stroke-linejoin:miter;stroke-miterlimit:4;stroke-dasharray:none;stroke-opacity:1" />
      <path
         sodipodi:nodetypes="ccccccccccccccccccc"
         inkscape:connector-curvature="0"
         id="path3346"
         d="m 80.973211,1011.3622 -8,8 0,32 8,0 0,-12 12.000001,0 0,12 7.999998,0 0,-32 -7.999998,-8 z m 0,12 3,-3.1704 3.000001,0 3,0 3,3.1704 0,8 -12.000001,0 z"
         style="fill:url(#linearGradient4197);fill-rule:evenodd;stroke:none;stroke-width:1.00000012;stroke-linecap:butt;stroke-linejoin:miter;stroke-miterlimit:4;stroke-dasharray:none;stroke-opacity:1" />
      <path
         inkscape:connector-curvature="0"
         id="path3350"
         d="m 108.97322,1011.3622 0,24 16,0 0,8 -16,0 0,8 24,0 0,-24 -16,0 0,-8 16,0 0,-8 -24,0 z"
         style="fill:url(#linearGradient4197);fill-rule:evenodd;stroke:none;stroke-width:1.00000012;stroke-linecap:butt;stroke-linejoin:miter;stroke-miterlimit:4;stroke-dasharray:none;stroke-opacity:1" />
      <path
         inkscape:connector-curvature="0"
         id="path3354"
         d="m 140.97323,1011.3622 0,40 8,0 0,-16 12,0 0,16 8,0 0,-40 -8,0 0,16 -12,0 0,-16 z"
         style="fill:url(#linearGradient4197);fill-rule:evenodd;stroke:none;stroke-width:1.00000012;stroke-linecap:butt;stroke-linejoin:miter;stroke-miterlimit:4;stroke-dasharray:none;stroke-opacity:1" />
      <path
         inkscape:connector-curvature="0"
         id="path3340-3"
         d="m 176.97322,1011.3622 0,40 20,0 8,-8 0,-24 -8,-8 -20,0 z m 8,8 8,0 4,4 0,16 -4,4 -8,0 0,-24 z"
         style="fill:url(#linearGradient4191);fill-rule:evenodd;stroke:none;stroke-width:1.00000012;stroke-linecap:butt;stroke-linejoin:miter;stroke-miterlimit:4;stroke-dasharray:none;stroke-opacity:1" />
    </g>
  </g>
</svg>
